…
`tabl()` attempts to parse hits to a data.frame

    index("shakespeare") %>%
      prefix(speaker = "we") %>%
      size(50) %>% 
      tabl()

    #> # A tibble: 44 x 6
    #>    line_id play_name speech_number line_number      speaker
    #>      <int>     <chr>         <int>       <chr>        <chr>
    #> 1       41  Henry IV             2      1.1.38 WESTMORELAND
    #> 2       42  Henry IV             2      1.1.39 WESTMORELAND
    #> 3       45  Henry IV             2      1.1.42 WESTMORELAND
    #> 4       49  Henry IV             2      1.1.46 WESTMORELAND
    #> 5       53  Henry IV             4      1.1.50 WESTMORELAND
    #> 6       61  Henry IV             4      1.1.58 WESTMORELAND
    #> 7       80  Henry IV             6      1.1.77 WESTMORELAND
    #> 8       99  Henry IV             8      1.1.96 WESTMORELAND
    #> 9      100  Henry IV             8      1.1.97 WESTMORELAND
    #> 10     111  Henry IV            10     1.1.108 WESTMORELAND
    #> # ... with 34 more rows, and 1 more variables: text_entry <chr>
…
