…
    make_df <- function(x) {
      tbl_df(do.call(rbind, lapply(x$hits$hits, function(x) data.frame(x$`_source`$location)))) 
    }

all the data
------------

    out <- Search('gbifgeopoint', size = 1000)
    out$hits$total

    #> [1] 600

    (dat <- make_df(out))

    #> # A tibble: 600 x 2
    #>         lon      lat
    #> *     <dbl>    <dbl>
    #> 1   2.97260 51.13451
    #> 2   2.93852 51.08603
    #> 3   2.93760 51.08666
    #> 4   2.85835 51.02540
    #> 5   2.94271 51.08526
    #> 6   2.93141 51.23301
    #> 7   2.93012 51.23349
    #> 8  12.37820 58.28100
    #> 9  13.41860 55.67690
    #> 10 20.25920 63.82150
    #> # ... with 590 more rows
…
    #> [1] 76

    (dat <- make_df(out))

    #> # A tibble: 76 x 2
    #>        lon      lat
    #> *    <dbl>    <dbl>
    #> 1  2.97260 51.13451
    #> 2  2.93852 51.08603
    #> 3  2.93760 51.08666
    #> 4  2.85835 51.02540
    #> 5  2.94271 51.08526
    #> 6  2.93141 51.23301
    #> 7  2.93012 51.23349
    #> 8  7.15663 50.57702
    #> 9  8.96661 50.40650
    #> 10 6.74515 51.18375
    #> # ... with 66 more rows
…
