…
make data.frame

    dat <- tbl_df(do.call("rbind.data.frame", lapply(out, "[[", "_source")))

filter, remove outlier

    dat <- dat %>% dplyr::filter(cut != 'Fair', depth > 50)

group by

    (dat <- dat %>% group_by(color))

    ## Source: local data frame [52,328 x 10]
    ## Groups: color [7]
    ## 
    ##    carat       cut  color clarity depth table price     x     y     z
    ##    <dbl>    <fctr> <fctr>  <fctr> <dbl> <dbl> <int> <dbl> <dbl> <dbl>
    ## 1   0.22   Premium      F     SI1  60.4    61   342  3.88  3.84  2.33
    ## 2   0.20   Premium      E     SI2  60.2    62   345  3.79  3.75  2.27
    ## 3   0.32   Premium      E      I1  60.9    58   345  4.38  4.42  2.68
    ## 4   0.24   Premium      I     VS1  62.5    57   355  3.97  3.94  2.47
    ## 5   0.30 Very Good      J     VS2  62.2    57   357  4.28  4.30  2.67
    ## 6   0.23 Very Good      E     VS1  59.5    58   402  4.01  4.06  2.40
    ## 7   0.33     Ideal      J     SI1  61.1    56   403  4.49  4.55  2.76
    ## 8   0.30 Very Good      I     SI1  62.6    57   405  4.25  4.28  2.67
    ## 9   0.30      Good      I     SI1  63.2    55   405  4.25  4.29  2.70
    ## 10  0.31 Very Good      G     SI1  63.3    57   553  4.33  4.30  2.73
    ## # ... with 52,318 more rows
…
